%YAML 1.1
%TAG !u! tag:unity3d.com,2011:
--- !u!1045 &1
EditorBuildSettings:
  m_ObjectHideFlags: 0
  serializedVersion: 2
  m_Scenes:
  - enabled: 1
    path: Assets/Scenes/Menu.unity
  - enabled: 1
    path: Assets/Scenes/Blitz Racing.unity
  - enabled: 1
    path: Assets/Scenes/WinScene.unity
  - enabled: 1
    path: Assets/Scenes/WinScene 2.unity
  - enabled: 1
    path: Assets/Scenes/GameOver.unity
